{
  "project_info": {
    "project_number": "76660823227",
    "project_id": "ps-jewels",
    "storage_bucket": "ps-jewels.appspot.com"
  },
  "client": [
    {
      "client_info": {
        "mobilesdk_app_id": "1:76660823227:android:015abae41ae6edcc53459e",
        "android_client_info": {
          "package_name": "com.psjewels"
        }
      },
      "oauth_client": [
        {
          "client_id": "76660823227-fu8c7q1bnjn6i679te7ir883v6o7jsro.apps.googleusercontent.com",
          "client_type": 1,
          "android_info": {
            "package_name": "com.psjewels",
            "certificate_hash": "916ab8ca67a946608d04b5aa31d1ae07da081f95"
          }
        },
        {
          "client_id": "76660823227-3jv9pgvuqhrbdnru7e1au1clcru2oafj.apps.googleusercontent.com",
          "client_type": 3
        }
      ],
      "api_key": [
        {
          "current_key": "AIzaSyDq60D9pCH0b7JviFD1siAJh7mB_-IRwdI"
        }
      ],
      "services": {
        "appinvite_service": {
          "other_platform_oauth_client": [
            {
              "client_id": "76660823227-3jv9pgvuqhrbdnru7e1au1clcru2oafj.apps.googleusercontent.com",
              "client_type": 3
            }
          ]
        }
      }
    }
  ],
  "configuration_version": "1"
}